09:54:12,775|T 8|                   fbsale| INFO| postpage :{"PageId":null,"ShopId":null,"PageFacebookId":null,"PageFacebookToken":null,"PageName":null,"Status":null,"CreatedAt":null,"UpdatedAt":null}
09:55:39,291|T16|                   fbsale| INFO| postpage :{"PageId":null,"ShopId":null,"PageFacebookId":null,"PageFacebookToken":null,"PageName":null,"Status":null,"CreatedAt":null,"UpdatedAt":null}
09:56:27,526|T 6|                   fbsale| INFO| postpage :{"PageId":null,"ShopId":null,"PageFacebookId":null,"PageFacebookToken":null,"PageName":null,"Status":null,"CreatedAt":null,"UpdatedAt":null}
10:00:16,323|T 8|                   fbsale| INFO| postpage :{"PageId":null,"ShopId":null,"PageFacebookId":null,"PageFacebookToken":null,"PageName":null,"Status":null,"CreatedAt":null,"UpdatedAt":null}
10:03:04,243|T 9|                   fbsale| INFO| postpage :{"PageId":null,"ShopId":null,"PageFacebookId":null,"PageFacebookToken":null,"PageName":null,"Status":null,"CreatedAt":null,"UpdatedAt":null}
10:05:41,031|T 6|                   fbsale| INFO| postpage :{"PageId":null,"ShopId":null,"PageFacebookId":null,"PageFacebookToken":null,"PageName":null,"Status":null,"CreatedAt":null,"UpdatedAt":null}
11:06:51,386|T71|                   fbsale| INFO| postpage :{"PageId":null,"ShopId":null,"PageFacebookId":null,"PageFacebookToken":null,"PageName":null,"Status":null,"CreatedAt":null,"UpdatedAt":null}
