10:34:38,798|T 8|                   fbsale| INFO| postpage :{"PageId":null,"ShopId":null,"PageFacebookId":null,"PageFacebookToken":null,"PageName":null,"Status":null,"CreatedAt":null,"UpdatedAt":null}
10:34:54,204|T 9|                   fbsale| INFO| 9
10:34:54,208|T 9|                   fbsale| INFO| 9-9
10:34:55,695|T 7|                   fbsale| INFO| 9
10:34:55,695|T 7|                   fbsale| INFO| 9-9
