11:13:26,200|T 6|                   fbsale| INFO| postpage :{"PageId":null,"ShopId":null,"PageFacebookId":null,"PageFacebookToken":null,"PageName":null,"Status":null,"CreatedAt":null,"UpdatedAt":null}
11:15:56,112|T 9|                   fbsale| INFO| postpage :{"PageId":null,"ShopId":null,"PageFacebookId":null,"PageFacebookToken":null,"PageName":null,"Status":null,"CreatedAt":null,"UpdatedAt":null}
14:44:23,277|T10|                   fbsale| INFO| postpage :{"PageId":null,"ShopId":null,"PageFacebookId":null,"PageFacebookToken":null,"PageName":null,"Status":null,"CreatedAt":null,"UpdatedAt":null}
14:44:38,378|T 6|                   fbsale| INFO| 9
14:44:38,382|T 6|                   fbsale| INFO| 9-9
14:47:53,036|T11|                   fbsale| INFO| 9
14:47:53,037|T11|                   fbsale| INFO| 9-9
14:48:19,022|T 9|                   fbsale| INFO| 9
14:48:19,023|T 9|                   fbsale| INFO| 9-9
14:49:13,562|T 6|                   fbsale| INFO| 9
14:49:13,563|T 6|                   fbsale| INFO| 9-9
14:51:10,228|T 8|                   fbsale| INFO| 9
14:51:10,230|T 8|                   fbsale| INFO| 9-9
14:52:16,571|T10|                   fbsale| INFO| 9
14:52:16,572|T10|                   fbsale| INFO| 9-9
14:52:57,578|T14|                   fbsale| INFO| 9
14:52:57,579|T14|                   fbsale| INFO| 9-9
14:56:16,924|T10|                   fbsale| INFO| 9
14:56:16,925|T10|                   fbsale| INFO| 9-9
14:59:09,147|T16|                   fbsale| INFO| 9
14:59:09,148|T16|                   fbsale| INFO| 9-9
14:59:38,257|T14|                   fbsale| INFO| 9
14:59:38,258|T14|                   fbsale| INFO| 9-9
15:00:17,625|T16|                   fbsale| INFO| 9
15:00:17,626|T16|                   fbsale| INFO| 9-9
15:01:33,535|T10|                   fbsale| INFO| postpage :{"PageId":null,"ShopId":null,"PageFacebookId":null,"PageFacebookToken":null,"PageName":null,"Status":null,"CreatedAt":null,"UpdatedAt":null}
15:01:41,030|T16|                   fbsale| INFO| 9
15:01:41,031|T16|                   fbsale| INFO| 9-9
15:03:33,510|T 6|                   fbsale| INFO| 9
15:03:33,511|T 6|                   fbsale| INFO| 9-9
15:03:49,950|T15|                   fbsale| INFO| 9
15:03:49,953|T15|                   fbsale| INFO| 9-9
15:06:45,223|T 8|                   fbsale| INFO| postpage :{"PageId":null,"ShopId":null,"PageFacebookId":null,"PageFacebookToken":null,"PageName":null,"Status":null,"CreatedAt":null,"UpdatedAt":null}
15:07:24,522|T18|                   fbsale| INFO| 9
15:07:24,523|T18|                   fbsale| INFO| 9-9
15:07:58,640|T15|                   fbsale| INFO| 9
15:07:58,640|T15|                   fbsale| INFO| 9-9
15:14:44,367|T12|                   fbsale| INFO| postpage :{"PageId":null,"ShopId":null,"PageFacebookId":null,"PageFacebookToken":null,"PageName":null,"Status":null,"CreatedAt":null,"UpdatedAt":null}
15:14:52,102|T12|                   fbsale| INFO| 9
15:14:52,105|T12|                   fbsale| INFO| 9-9
15:15:42,423|T18|                   fbsale| INFO| 9
15:15:42,429|T18|                   fbsale| INFO| 9-9
15:16:31,757|T20|                   fbsale| INFO| 9
15:16:31,759|T20|                   fbsale| INFO| 9-9
15:16:51,668|T12|                   fbsale| INFO| 9
15:16:51,668|T12|                   fbsale| INFO| 9-9
15:17:31,999|T 8|                   fbsale| INFO| 9
15:17:31,999|T 8|                   fbsale| INFO| 9-9
15:19:05,014|T 8|                   fbsale| INFO| 9
15:19:05,014|T 8|                   fbsale| INFO| 9-9
15:19:56,633|T20|                   fbsale| INFO| 9
15:19:56,635|T20|                   fbsale| INFO| 9-9
15:25:07,754|T23|                   fbsale| INFO| 9
15:25:07,755|T23|                   fbsale| INFO| 9-9
15:25:47,909|T23|                   fbsale| INFO| 9
15:25:47,910|T23|                   fbsale| INFO| 9-9
15:25:57,113|T15|                   fbsale| INFO| 9
15:25:57,115|T15|                   fbsale| INFO| 9-9
15:28:23,535|T11|                   fbsale| INFO| 9
15:28:23,536|T11|                   fbsale| INFO| 9-9
15:31:22,823|T 8|                   fbsale| INFO| 9
15:31:22,827|T 8|                   fbsale| INFO| 9-9
15:31:54,846|T23|                   fbsale| INFO| 9
15:31:54,847|T23|                   fbsale| INFO| 9-9
15:32:13,596|T11|                   fbsale| INFO| 9
15:32:13,596|T11|                   fbsale| INFO| 9-9
15:33:57,889|T23|                   fbsale| INFO| 9
15:33:57,890|T23|                   fbsale| INFO| 9-9
15:34:27,759|T 8|                   fbsale| INFO| 9
15:34:27,760|T 8|                   fbsale| INFO| 9-9
15:34:38,105|T23|                   fbsale| INFO| 9
15:34:38,106|T23|                   fbsale| INFO| 9-9
15:34:51,952|T13|                   fbsale| INFO| 9
15:34:51,953|T13|                   fbsale| INFO| 9-9
15:36:45,111|T23|                   fbsale| INFO| 9
15:36:45,112|T23|                   fbsale| INFO| 9-9
15:38:13,891|T24|                   fbsale| INFO| 9
15:38:13,896|T24|                   fbsale| INFO| 9-9
15:38:58,045|T23|                   fbsale| INFO| 9
15:38:58,047|T23|                   fbsale| INFO| 9-9
15:39:37,887|T25|                   fbsale| INFO| 9
15:39:37,888|T25|                   fbsale| INFO| 9-9
15:41:11,312|T13|                   fbsale| INFO| postpage :{"PageId":null,"ShopId":null,"PageFacebookId":null,"PageFacebookToken":null,"PageName":null,"Status":null,"CreatedAt":null,"UpdatedAt":null}
15:41:15,695|T25|                   fbsale| INFO| 9
15:41:15,698|T25|                   fbsale| INFO| 9-9
15:41:22,368|T23|                   fbsale| INFO| 9
15:41:22,370|T23|                   fbsale| INFO| 9-9
15:43:01,336|T25|                   fbsale| INFO| 9
15:43:01,336|T25|                   fbsale| INFO| 9-9
15:43:08,608|T26|                   fbsale| INFO| 9
15:43:08,610|T26|                   fbsale| INFO| 9-9
15:44:10,791|T28|                   fbsale| INFO| 9
15:44:10,792|T28|                   fbsale| INFO| 9-9
15:45:06,624|T26|                   fbsale| INFO| 9
15:45:06,625|T26|                   fbsale| INFO| 9-9
15:45:34,546|T28|                   fbsale| INFO| postpage :{"PageId":null,"ShopId":null,"PageFacebookId":null,"PageFacebookToken":null,"PageName":null,"Status":null,"CreatedAt":null,"UpdatedAt":null}
15:46:49,623|T24|                   fbsale| INFO| 9
15:46:49,624|T24|                   fbsale| INFO| 9-9
15:48:02,864|T24|                   fbsale| INFO| 9
15:48:02,865|T24|                   fbsale| INFO| 9-9
15:48:50,108|T27|                   fbsale| INFO| 9
15:48:50,109|T27|                   fbsale| INFO| 9-9
15:49:11,205|T29|                   fbsale| INFO| 9
15:49:11,205|T29|                   fbsale| INFO| 9-9
15:50:56,063|T26|                   fbsale| INFO| 9
15:50:56,064|T26|                   fbsale| INFO| 9-9
15:52:08,798|T31|                   fbsale| INFO| 9
15:52:08,799|T31|                   fbsale| INFO| 9-9
15:52:31,323|T10|                   fbsale| INFO| 9
15:52:31,324|T10|                   fbsale| INFO| 9-9
15:53:07,362|T27|                   fbsale| INFO| 9
15:53:07,363|T27|                   fbsale| INFO| 9-9
15:53:48,564|T31|                   fbsale| INFO| 9
15:53:48,565|T31|                   fbsale| INFO| 9-9
15:54:25,265|T26|                   fbsale| INFO| 9
15:54:25,266|T26|                   fbsale| INFO| 9-9
15:55:39,692|T29|                   fbsale| INFO| 9
15:55:39,693|T29|                   fbsale| INFO| 9-9
15:56:08,111|T22|                   fbsale| INFO| 9
15:56:08,117|T22|                   fbsale| INFO| 9-9
15:56:29,271|T20|                   fbsale| INFO| 9
15:56:29,273|T20|                   fbsale| INFO| 9-9
15:56:52,156|T27|                   fbsale| INFO| 9
15:56:52,157|T27|                   fbsale| INFO| 9-9
15:58:14,286|T22|                   fbsale| INFO| 9
15:58:14,287|T22|                   fbsale| INFO| 9-9
15:58:36,286|T27|                   fbsale| INFO| 9
15:58:36,287|T27|                   fbsale| INFO| 9-9
15:59:36,104|T27|                   fbsale| INFO| 9
15:59:36,106|T27|                   fbsale| INFO| 9-9
16:00:22,523|T22|                   fbsale| INFO| 9
16:00:22,524|T22|                   fbsale| INFO| 9-9
16:09:21,445|T10|                   fbsale| INFO| 9
16:09:21,446|T10|                   fbsale| INFO| 9-9
16:11:15,241|T10|                   fbsale| INFO| postpage :{"PageId":null,"ShopId":null,"PageFacebookId":null,"PageFacebookToken":null,"PageName":null,"Status":null,"CreatedAt":null,"UpdatedAt":null}
16:11:25,047|T22|                   fbsale| INFO| 9
16:11:25,049|T22|                   fbsale| INFO| 9-9
16:11:30,922|T28|                   fbsale| INFO| 9
16:11:30,923|T28|                   fbsale| INFO| 9-9
16:12:03,110|T25|                   fbsale| INFO| 9
16:12:03,111|T25|                   fbsale| INFO| 9-9
16:12:19,250|T20|                   fbsale| INFO| 9
16:12:19,251|T20|                   fbsale| INFO| 9-9
16:12:26,581|T20|                   fbsale| INFO| 9
16:12:26,582|T20|                   fbsale| INFO| 9-9
16:12:58,228|T 8|                   fbsale| INFO| 9
16:12:58,229|T 8|                   fbsale| INFO| 9-9
16:14:15,600|T25|                   fbsale| INFO| 9
16:14:15,604|T25|                   fbsale| INFO| 9-9
16:14:39,944|T 8|                   fbsale| INFO| 9
16:14:39,945|T 8|                   fbsale| INFO| 9-9
16:17:20,840|T20|                   fbsale| INFO| 9
16:17:20,841|T20|                   fbsale| INFO| 9-9
16:17:55,831|T29|                   fbsale| INFO| 9
16:17:55,835|T29|                   fbsale| INFO| 9-9
16:18:58,037|T25|                   fbsale| INFO| 9
16:18:58,038|T25|                   fbsale| INFO| 9-9
16:20:55,248|T 8|                   fbsale| INFO| postpage :{"PageId":null,"ShopId":null,"PageFacebookId":null,"PageFacebookToken":null,"PageName":null,"Status":null,"CreatedAt":null,"UpdatedAt":null}
16:20:59,180|T10|                   fbsale| INFO| 9
16:20:59,183|T10|                   fbsale| INFO| 9-9
16:22:29,262|T10|                   fbsale| INFO| 9
16:22:29,265|T10|                   fbsale| INFO| 9-9
16:22:52,904|T28|                   fbsale| INFO| 9
16:22:52,905|T28|                   fbsale| INFO| 9-9
16:24:09,362|T29|                   fbsale| INFO| 9
16:24:09,365|T29|                   fbsale| INFO| 9-9
16:24:41,001|T 8|                   fbsale| INFO| 9
16:24:41,003|T 8|                   fbsale| INFO| 9-9
16:26:09,233|T 8|                   fbsale| INFO| postpage :{"PageId":null,"ShopId":null,"PageFacebookId":null,"PageFacebookToken":null,"PageName":null,"Status":null,"CreatedAt":null,"UpdatedAt":null}
16:26:16,703|T20|                   fbsale| INFO| 9
16:26:16,704|T20|                   fbsale| INFO| 9-9
16:27:25,315|T20|                   fbsale| INFO| 9
16:27:25,316|T20|                   fbsale| INFO| 9-9
16:28:14,476|T22|                   fbsale| INFO| 9
16:28:14,477|T22|                   fbsale| INFO| 9-9
16:29:47,690|T10|                   fbsale| INFO| 9
16:29:47,691|T10|                   fbsale| INFO| 9-9
16:31:40,233|T20|                   fbsale| INFO| 9
16:31:40,234|T20|                   fbsale| INFO| 9-9
16:32:47,470|T22|                   fbsale| INFO| 9
16:32:47,472|T22|                   fbsale| INFO| 9-9
16:34:37,491|T28|                   fbsale| INFO| 9
16:34:37,517|T28|                   fbsale| INFO| 9-9
16:34:56,692|T29|                   fbsale| INFO| 9
16:34:56,693|T29|                   fbsale| INFO| 9-9
16:37:21,606|T27|                   fbsale| INFO| postpage :{"PageId":null,"ShopId":null,"PageFacebookId":null,"PageFacebookToken":null,"PageName":null,"Status":null,"CreatedAt":null,"UpdatedAt":null}
16:37:27,419|T28|                   fbsale| INFO| 9
16:37:27,421|T28|                   fbsale| INFO| 9-9
