16:35:17,526|T36|                 customer| INFO| {"CustomerId":null,"FacebookUserId":null,"ShopId":2,"CustomerName":"test them nhanh","Address":null,"DistrictId":-1,"ProvinceId":-1,"Phone":"09123231662","Email":"phu@gmail.com","DOB":null,"Gender":true,"Level":0,"Status":0,"Note":null,"Tag":"","CreatedAt":"2017-06-20T09:35:17.319891Z","UpdatedAt":"2017-06-20T09:35:17.319891Z","ID":null,"Type":0,"CustomerGroupId":1,"TaxID":null,"CustomerCode":"KH000163","FBUserAvatar":null,"SearchQuery":null,"FacebookMessengerId":null,"TotalConversation":0}
16:40:30,314|T43|                 customer| INFO| {"CustomerId":null,"FacebookUserId":null,"ShopId":2,"CustomerName":"test them nhanh 2","Address":null,"DistrictId":-1,"ProvinceId":-1,"Phone":"1122211231","Email":null,"DOB":null,"Gender":true,"Level":0,"Status":0,"Note":null,"Tag":"","CreatedAt":"2017-06-20T09:40:30.2990128Z","UpdatedAt":"2017-06-20T09:40:30.2990128Z","ID":null,"Type":0,"CustomerGroupId":1,"TaxID":null,"CustomerCode":"KH000164","FBUserAvatar":null,"SearchQuery":null,"FacebookMessengerId":null,"TotalConversation":0}
16:45:39,708|T44|                 customer| INFO| {"CustomerId":null,"FacebookUserId":null,"ShopId":2,"CustomerName":"test them m?i 3","Address":null,"DistrictId":-1,"ProvinceId":-1,"Phone":"11098711233","Email":null,"DOB":null,"Gender":true,"Level":0,"Status":0,"Note":null,"Tag":"","CreatedAt":"2017-06-20T09:45:39.704422Z","UpdatedAt":"2017-06-20T09:45:39.704422Z","ID":null,"Type":0,"CustomerGroupId":1,"TaxID":null,"CustomerCode":"KH000165","FBUserAvatar":null,"SearchQuery":null,"FacebookMessengerId":null,"TotalConversation":0}
